{
    "name": "Nighday.Core.Loading",
    "references": [
        "Unity.Addressables",
        "Unity.ResourceManager",
        "Nighday.Application",
        "Nighday.General.TaskExtentions",
	"Nighday.General.EntitiesExtentions"
    ],
    "includePlatforms": [
        "Android",
        "Editor",
        "iOS",
        "LinuxStandalone64",
        "macOSStandalone"
    ],
    "excludePlatforms": [],
    "allowUnsafeCode": false,
    "overrideReferences": false,
    "precompiledReferences": [],
    "autoReferenced": true,
    "defineConstraints": [],
    "versionDefines": [],
    "noEngineReferences": false
}