%YAML 1.1
%TAG !u! tag:unity3d.com,2011:
--- !u!114 &11400000
MonoBehaviour:
  m_ObjectHideFlags: 0
  m_CorrespondingSourceObject: {fileID: 0}
  m_PrefabInstance: {fileID: 0}
  m_PrefabAsset: {fileID: 0}
  m_GameObject: {fileID: 0}
  m_Enabled: 1
  m_EditorHideFlags: 0
  m_Script: {fileID: 11500000, guid: bbb281ee3bf0b054c82ac2347e9e782c, type: 3}
  m_Name: Core
  m_EditorClassIdentifier: 
  m_GroupName: Core
  m_Data:
    m_SerializedData: []
  m_GUID: 33987ffb3656b46b4b5f46f2ae039d35
  m_SerializeEntries:
  - m_GUID: 27f4aca6b9e4f4abf883217e350c9af7
    m_Address: LoadingView
    m_ReadOnly: 0
    m_SerializedLabels: []
    m_MainAsset: {fileID: 4220446893725535918, guid: 27f4aca6b9e4f4abf883217e350c9af7, type: 3}
    m_TargetAsset: {fileID: 4220446893725535918, guid: 27f4aca6b9e4f4abf883217e350c9af7, type: 3}
  m_ReadOnly: 0
  m_Settings: {fileID: 11400000, guid: 476fe762d8b394c79bdb1ed345cc7a44, type: 2}
  m_SchemaSet:
    m_Schemas:
    - {fileID: 11400000, guid: 49622c21eaa0d406f95896d4788797e7, type: 2}
    - {fileID: 11400000, guid: 66006dca8bc8345a0a28d58a7f8f20ee, type: 2}
