%YAML 1.1
%TAG !u! tag:unity3d.com,2011:
--- !u!114 &11400000
MonoBehaviour:
  m_ObjectHideFlags: 0
  m_CorrespondingSourceObject: {fileID: 0}
  m_PrefabInstance: {fileID: 0}
  m_PrefabAsset: {fileID: 0}
  m_GameObject: {fileID: 0}
  m_Enabled: 1
  m_EditorHideFlags: 0
  m_Script: {fileID: 11500000, guid: bbb281ee3bf0b054c82ac2347e9e782c, type: 3}
  m_Name: Matchmaking
  m_EditorClassIdentifier: 
  m_GroupName: Matchmaking
  m_Data:
    m_SerializedData: []
  m_GUID: 3c7ef42954b7d42fe8644bff5e6de787
  m_SerializeEntries:
  - m_GUID: b11fed578e789423482172485d8aed3c
    m_Address: MatchmakingLobbyClientView
    m_ReadOnly: 0
    m_SerializedLabels: []
    m_MainAsset: {fileID: 0}
    m_TargetAsset: {fileID: 0}
  m_ReadOnly: 0
  m_Settings: {fileID: 11400000, guid: 476fe762d8b394c79bdb1ed345cc7a44, type: 2}
  m_SchemaSet:
    m_Schemas:
    - {fileID: 11400000, guid: 41e47009b86b843f7938c1cd2889b310, type: 2}
    - {fileID: 11400000, guid: c04093af864f64533a9942ef384cc9b0, type: 2}
