{
    "name": "StarFights.GameCore.Location.Generated",
    "references": [
        "GUID:734d92eba21c94caba915361bd5ac177",
        "GUID:2665a8d13d1b3f18800f46e256720795",
        "GUID:953adc2a6b8b4e3c8df5b728bcd546e9",
        "GUID:a5baed0c9693541a5bd947d336ec7659",
        "GUID:d8b63aba1907145bea998dd612889d6b",
        "GUID:e0cd26848372d4e5c891c569017e11f1",
        "GUID:2278210659b7c4d4590f8972c8fc178c",
        "GUID:63afb046c8423dd448ae7aba042ea63d",
        "GUID:8819f35a0fc84499b990e90a4ca1911f",
        "GUID:f35da30640e9a46b789d1290a294354d",
        "GUID:9e24947de15b9834991c9d8411ea37cf",
        "GUID:84651a3751eca9349aac36a66bba901b",
        "GUID:e9762e08c380d48e98c412b43cbdc6e1",
        "GUID:7e25d078fb104b15bd736ef3b179b758",
        "GUID:a103a52f913a4ae994badc2fdabbe2a9",
        "GUID:ceecb2b72a204884b07b4eeaa10f2884",
        "GUID:54e1aa64c767414c80895b6ac692fc2d",
        "GUID:f3ab7fe2c16084122acec44d6f7795b2",
        "GUID:9ac5c653c28ac4a5a85bc5594dbfedaa",
        "GUID:df2e5d6dcfb4434cb5c08793ac2c870d",
        "GUID:d2609e855062844f8928be2b9a5d5759",
        "GUID:418051ad51cb441599ba2717460b0ecd",
        "GUID:ac79c2827308490dbb4c5858f43dc5b1",
        "GUID:b8b88c0f6f7e49c485303afbe369e899",
        "GUID:98d611b0de804b8683f126add72d5f40",
        "GUID:44dcb2bf5b9be4b5aa76674c8edcd1d5",
        "GUID:0a2ddf83bced46acbef52c5ad8bb4ee4",
        "Unity.Networking.Transport"
    ],
    "includePlatforms": [
        "Android","Editor","iOS","LinuxStandalone64","macOSStandalone"
    ],
    "excludePlatforms": [
        
    ],
    "allowUnsafeCode": false,
    "overrideReferences": false,
    "precompiledReferences": [],
    "autoReferenced": false,
    "defineConstraints": [
        
    ],
    "versionDefines": [],
    "noEngineReferences": false
}