%YAML 1.1
%TAG !u! tag:unity3d.com,2011:
--- !u!114 &11400000
MonoBehaviour:
  m_ObjectHideFlags: 0
  m_CorrespondingSourceObject: {fileID: 0}
  m_PrefabInstance: {fileID: 0}
  m_PrefabAsset: {fileID: 0}
  m_GameObject: {fileID: 0}
  m_Enabled: 1
  m_EditorHideFlags: 0
  m_Script: {fileID: 11500000, guid: 05e5c5c9875049728e99adb7a77a6ed5, type: 3}
  m_Name: GameMode_SoloTraining
  m_EditorClassIdentifier: 
  _name: Solo Training
  _mapName: Location_Solo Training
  _teamType: 0
  _playersAmount: 1
  _playersInTeamAmount: 0
