{
    "name": "StarFights.GameCore.Animation.Generated",
    "references": [
        "GUID:734d92eba21c94caba915361bd5ac177",
        "GUID:2665a8d13d1b3f18800f46e256720795",
        "GUID:953adc2a6b8b4e3c8df5b728bcd546e9",
        "GUID:a5baed0c9693541a5bd947d336ec7659",
        "GUID:d8b63aba1907145bea998dd612889d6b",
        "GUID:e0cd26848372d4e5c891c569017e11f1",
        "GUID:a984bfd7f1bf45daa9e32d54471d1bd9",
        "GUID:8819f35a0fc84499b990e90a4ca1911f",
        "GUID:63afb046c8423dd448ae7aba042ea63d",
        "GUID:44dcb2bf5b9be4b5aa76674c8edcd1d5",
        "GUID:b8b88c0f6f7e49c485303afbe369e899",
        "GUID:54e1aa64c767414c80895b6ac692fc2d",
        "GUID:df2e5d6dcfb4434cb5c08793ac2c870d",
        "GUID:b0e9466dc516482cbf9074749e79487b",
        "GUID:2a5d7cdad252b4e348994d740790face",
        "GUID:2278210659b7c4d4590f8972c8fc178c",
        "GUID:4fcf26684d07a47c2a05664341997cc6",
        "GUID:9ac5c653c28ac4a5a85bc5594dbfedaa",
        "GUID:9e24947de15b9834991c9d8411ea37cf",
        "GUID:84651a3751eca9349aac36a66bba901b",
        "GUID:98d611b0de804b8683f126add72d5f40",
        "GUID:7e25d078fb104b15bd736ef3b179b758",
        "GUID:d2609e855062844f8928be2b9a5d5759",
        "GUID:ceecb2b72a204884b07b4eeaa10f2884",
        "GUID:f3ab7fe2c16084122acec44d6f7795b2",
        "GUID:42307072f5e04fd1b08ea04bd6514dd9",
        "GUID:a3fa5c4ca595c48f885741f83632baf6",
        "Unity.Networking.Transport"
    ],
    "includePlatforms": [
        "Android","Editor","iOS","LinuxStandalone64","macOSStandalone"
    ],
    "excludePlatforms": [
        
    ],
    "allowUnsafeCode": false,
    "overrideReferences": false,
    "precompiledReferences": [],
    "autoReferenced": false,
    "defineConstraints": [
        
    ],
    "versionDefines": [],
    "noEngineReferences": false
}