%YAML 1.1
%TAG !u! tag:unity3d.com,2011:
--- !u!114 &11400000
MonoBehaviour:
  m_ObjectHideFlags: 0
  m_CorrespondingSourceObject: {fileID: 0}
  m_PrefabInstance: {fileID: 0}
  m_PrefabAsset: {fileID: 0}
  m_GameObject: {fileID: 0}
  m_Enabled: 1
  m_EditorHideFlags: 0
  m_Script: {fileID: 11500000, guid: 9e6b9addaa7e48edb51e03e02f65f9b4, type: 3}
  m_Name: GameBuildingItem_3
  m_EditorClassIdentifier: 
  Name: Beta_MacOS_Client
  BuildTargetGroup: 1
  BuildTarget: 2
  BuildType: 2
  DevelopmentBuild: 1
  DefinesMaskValue: 0
  Settings: {fileID: 11400000, guid: be3607ad4f84045e4818151dbe149396, type: 2}
  Enabled: 0
  Active: 0
  _defineArray: []
