%YAML 1.1
%TAG !u! tag:unity3d.com,2011:
--- !u!1 &7801709923436430284
GameObject:
  m_ObjectHideFlags: 0
  m_CorrespondingSourceObject: {fileID: 0}
  m_PrefabInstance: {fileID: 0}
  m_PrefabAsset: {fileID: 0}
  serializedVersion: 6
  m_Component:
  - component: {fileID: 6536844643463359403}
  - component: {fileID: 3006504841243781739}
  m_Layer: 5
  m_Name: Container
  m_TagString: Untagged
  m_Icon: {fileID: 0}
  m_NavMeshLayer: 0
  m_StaticEditorFlags: 0
  m_IsActive: 1
--- !u!224 &6536844643463359403
RectTransform:
  m_ObjectHideFlags: 0
  m_CorrespondingSourceObject: {fileID: 0}
  m_PrefabInstance: {fileID: 0}
  m_PrefabAsset: {fileID: 0}
  m_GameObject: {fileID: 7801709923436430284}
  m_LocalRotation: {x: 0, y: 0, z: 0, w: 1}
  m_LocalPosition: {x: 0, y: 0, z: 0}
  m_LocalScale: {x: 1, y: 1, z: 1}
  m_Children: []
  m_Father: {fileID: 1963648995375252892}
  m_RootOrder: 3
  m_LocalEulerAnglesHint: {x: 0, y: 0, z: 0}
  m_AnchorMin: {x: 0, y: 0}
  m_AnchorMax: {x: 1, y: 1}
  m_AnchoredPosition: {x: 0, y: 0}
  m_SizeDelta: {x: -800, y: -300}
  m_Pivot: {x: 0.5, y: 0.5}
--- !u!114 &3006504841243781739
MonoBehaviour:
  m_ObjectHideFlags: 0
  m_CorrespondingSourceObject: {fileID: 0}
  m_PrefabInstance: {fileID: 0}
  m_PrefabAsset: {fileID: 0}
  m_GameObject: {fileID: 7801709923436430284}
  m_Enabled: 1
  m_EditorHideFlags: 0
  m_Script: {fileID: 11500000, guid: 8a8695521f0d02e499659fee002a26c2, type: 3}
  m_Name: 
  m_EditorClassIdentifier: 
  m_Padding:
    m_Left: 0
    m_Right: 0
    m_Top: 0
    m_Bottom: 0
  m_ChildAlignment: 1
  m_StartCorner: 0
  m_StartAxis: 0
  m_CellSize: {x: 416, y: 416}
  m_Spacing: {x: 50, y: 50}
  m_Constraint: 0
  m_ConstraintCount: 2
--- !u!114 &5892766749359353940
MonoBehaviour:
  m_ObjectHideFlags: 0
  m_CorrespondingSourceObject: {fileID: 0}
  m_PrefabInstance: {fileID: 0}
  m_PrefabAsset: {fileID: 0}
  m_GameObject: {fileID: 1504888688196737937}
  m_Enabled: 1
  m_EditorHideFlags: 0
  m_Script: {fileID: 11500000, guid: f71f9c8001e88468eb71b96fd35b473c, type: 3}
  m_Name: 
  m_EditorClassIdentifier: 
  _heroViewPrefab: {fileID: 3869170089749222187, guid: aeaf71ec4e999483099403fbc0da9d01, type: 3}
  _container: {fileID: 6536844643463359403}
--- !u!1001 &7995429602954466929
PrefabInstance:
  m_ObjectHideFlags: 0
  serializedVersion: 2
  m_Modification:
    m_TransformParent: {fileID: 0}
    m_Modifications:
    - target: {fileID: 2115971247942092341, guid: 6df396fe8759947f0971c3279cf2533a, type: 3}
      propertyPath: m_RootOrder
      value: 5
      objectReference: {fileID: 0}
    - target: {fileID: 5716423595116058173, guid: 6df396fe8759947f0971c3279cf2533a, type: 3}
      propertyPath: m_IsActive
      value: 1
      objectReference: {fileID: 0}
    - target: {fileID: 6148385468111768538, guid: 6df396fe8759947f0971c3279cf2533a, type: 3}
      propertyPath: m_RootOrder
      value: 4
      objectReference: {fileID: 0}
    - target: {fileID: 8481738830647088109, guid: 6df396fe8759947f0971c3279cf2533a, type: 3}
      propertyPath: m_LocalPosition.x
      value: 0
      objectReference: {fileID: 0}
    - target: {fileID: 8481738830647088109, guid: 6df396fe8759947f0971c3279cf2533a, type: 3}
      propertyPath: m_LocalPosition.y
      value: 0
      objectReference: {fileID: 0}
    - target: {fileID: 8481738830647088109, guid: 6df396fe8759947f0971c3279cf2533a, type: 3}
      propertyPath: m_LocalPosition.z
      value: 0
      objectReference: {fileID: 0}
    - target: {fileID: 8481738830647088109, guid: 6df396fe8759947f0971c3279cf2533a, type: 3}
      propertyPath: m_LocalRotation.x
      value: 0
      objectReference: {fileID: 0}
    - target: {fileID: 8481738830647088109, guid: 6df396fe8759947f0971c3279cf2533a, type: 3}
      propertyPath: m_LocalRotation.y
      value: 0
      objectReference: {fileID: 0}
    - target: {fileID: 8481738830647088109, guid: 6df396fe8759947f0971c3279cf2533a, type: 3}
      propertyPath: m_LocalRotation.z
      value: 0
      objectReference: {fileID: 0}
    - target: {fileID: 8481738830647088109, guid: 6df396fe8759947f0971c3279cf2533a, type: 3}
      propertyPath: m_LocalRotation.w
      value: 1
      objectReference: {fileID: 0}
    - target: {fileID: 8481738830647088109, guid: 6df396fe8759947f0971c3279cf2533a, type: 3}
      propertyPath: m_RootOrder
      value: 0
      objectReference: {fileID: 0}
    - target: {fileID: 8481738830647088109, guid: 6df396fe8759947f0971c3279cf2533a, type: 3}
      propertyPath: m_LocalEulerAnglesHint.x
      value: 0
      objectReference: {fileID: 0}
    - target: {fileID: 8481738830647088109, guid: 6df396fe8759947f0971c3279cf2533a, type: 3}
      propertyPath: m_LocalEulerAnglesHint.y
      value: 0
      objectReference: {fileID: 0}
    - target: {fileID: 8481738830647088109, guid: 6df396fe8759947f0971c3279cf2533a, type: 3}
      propertyPath: m_LocalEulerAnglesHint.z
      value: 0
      objectReference: {fileID: 0}
    - target: {fileID: 8481738830647088109, guid: 6df396fe8759947f0971c3279cf2533a, type: 3}
      propertyPath: m_AnchoredPosition.x
      value: 0
      objectReference: {fileID: 0}
    - target: {fileID: 8481738830647088109, guid: 6df396fe8759947f0971c3279cf2533a, type: 3}
      propertyPath: m_AnchoredPosition.y
      value: 0
      objectReference: {fileID: 0}
    - target: {fileID: 8481738830647088109, guid: 6df396fe8759947f0971c3279cf2533a, type: 3}
      propertyPath: m_SizeDelta.x
      value: 0
      objectReference: {fileID: 0}
    - target: {fileID: 8481738830647088109, guid: 6df396fe8759947f0971c3279cf2533a, type: 3}
      propertyPath: m_SizeDelta.y
      value: 0
      objectReference: {fileID: 0}
    - target: {fileID: 8481738830647088109, guid: 6df396fe8759947f0971c3279cf2533a, type: 3}
      propertyPath: m_AnchorMin.x
      value: 0
      objectReference: {fileID: 0}
    - target: {fileID: 8481738830647088109, guid: 6df396fe8759947f0971c3279cf2533a, type: 3}
      propertyPath: m_AnchorMin.y
      value: 0
      objectReference: {fileID: 0}
    - target: {fileID: 8481738830647088109, guid: 6df396fe8759947f0971c3279cf2533a, type: 3}
      propertyPath: m_AnchorMax.x
      value: 1
      objectReference: {fileID: 0}
    - target: {fileID: 8481738830647088109, guid: 6df396fe8759947f0971c3279cf2533a, type: 3}
      propertyPath: m_AnchorMax.y
      value: 1
      objectReference: {fileID: 0}
    - target: {fileID: 8481738830647088109, guid: 6df396fe8759947f0971c3279cf2533a, type: 3}
      propertyPath: m_Pivot.x
      value: 0.5
      objectReference: {fileID: 0}
    - target: {fileID: 8481738830647088109, guid: 6df396fe8759947f0971c3279cf2533a, type: 3}
      propertyPath: m_Pivot.y
      value: 0.5
      objectReference: {fileID: 0}
    - target: {fileID: 8797509834624077280, guid: 6df396fe8759947f0971c3279cf2533a, type: 3}
      propertyPath: m_Name
      value: HeroesFullscreenWindow
      objectReference: {fileID: 0}
    - target: {fileID: 8956154509370526839, guid: 6df396fe8759947f0971c3279cf2533a, type: 3}
      propertyPath: m_AdditionalShaderChannelsFlag
      value: 25
      objectReference: {fileID: 0}
    - target: {fileID: 8956154509370526839, guid: 6df396fe8759947f0971c3279cf2533a, type: 3}
      propertyPath: m_SortingOrder
      value: 1001
      objectReference: {fileID: 0}
    m_RemovedComponents: []
  m_SourcePrefab: {fileID: 100100000, guid: 6df396fe8759947f0971c3279cf2533a, type: 3}
--- !u!1 &1504888688196737937 stripped
GameObject:
  m_CorrespondingSourceObject: {fileID: 8797509834624077280, guid: 6df396fe8759947f0971c3279cf2533a, type: 3}
  m_PrefabInstance: {fileID: 7995429602954466929}
  m_PrefabAsset: {fileID: 0}
--- !u!224 &1963648995375252892 stripped
RectTransform:
  m_CorrespondingSourceObject: {fileID: 8481738830647088109, guid: 6df396fe8759947f0971c3279cf2533a, type: 3}
  m_PrefabInstance: {fileID: 7995429602954466929}
  m_PrefabAsset: {fileID: 0}
