%YAML 1.1
%TAG !u! tag:unity3d.com,2011:
--- !u!114 &11400000
MonoBehaviour:
  m_ObjectHideFlags: 0
  m_CorrespondingSourceObject: {fileID: 0}
  m_PrefabInstance: {fileID: 0}
  m_PrefabAsset: {fileID: 0}
  m_GameObject: {fileID: 0}
  m_Enabled: 1
  m_EditorHideFlags: 0
  m_Script: {fileID: 11500000, guid: de0ff6b59b5f4188b274e2c4fd2567b5, type: 3}
  m_Name: ThrowingCrystalsComponentAsset
  m_EditorClassIdentifier: 
  ThrowImpulse: 75
  ThrowDurationTime: 0.35
  ThrowingSpeed: 1
  DistanceRange:
    x: 0.5
    y: 2
  ThrowIntervalRange:
    x: 5
    y: 8
