{
    "name": "StarFights.GameCore.Attack",
    "references": [
        "Unity.Burst",
        "Unity.NetCode",
        "Unity.Entities",
        "Unity.Transforms",
        "Unity.Mathematics",
        "Unity.Collections",
        "Unity.Physics",
        "Unity.Entities.Hybrid",
        "Nighday.TouchControllers",
        "Unity.Addressables",
        "Unity.ResourceManager",
        "Nighday.Application",
        "Nighday.Core.Loading",
        "Nighday.General.AddressablesExtentions",
        "Nighday.General.EntitiesExtentions",
        "Nighday.General.MathematicsExtentions",
        "StarFights.GameCore.General",
        "StarFights.GameCore.Animation",
        "StarFights.GameCore.Unit",
        "StarFights.GameCore.Projectile",
        "StarFights.GameCore.Location",
        "StarFights.GameCore.Movement",
        "Nighday.GameCamera",
        "Unity.Networking.Transport",
        "Nighday.General.Other",
        "Unity.Transforms.Hybrid",
        "Nighday.General.TaskExtentions",
        "StarFights.General",
        "Nighday.General.PhysicsExtentions"
    ],
    "includePlatforms": [
        "Android",
        "Editor",
        "iOS",
        "LinuxStandalone64",
        "macOSStandalone"
    ],
    "excludePlatforms": [],
    "allowUnsafeCode": false,
    "overrideReferences": false,
    "precompiledReferences": [],
    "autoReferenced": true,
    "defineConstraints": [],
    "versionDefines": [],
    "noEngineReferences": false
}